,mean,sd
1,0.0004271724,0.0005635978
2,0.0008101568,0.0010373894
3,0.0012520644,0.0015630508
4,0.0015908553,0.0019455866
5,0.0018707339,0.0022521173
6,0.0023273734,0.0027386261
7,0.0025630563,0.0029689287
8,0.0028723943,0.0033111948
9,0.0035352692,0.0040790272
10,0.0043307245,0.0051549561
11,0.0045222162,0.005276891
12,0.0052145484,0.0052467472
13,0.0058184925,0.0052350706
14,0.0065697468,0.00584391
15,0.0078071031,0.0066743622
16,0.0088382316,0.0071813482
17,0.0098840964,0.0079524199
18,0.0110478085,0.0093428167
19,0.011769598,0.0100891625
20,0.012255699,0.0103562291
21,0.0126386845,0.010387515
22,0.0130511304,0.0104775665
23,0.0135814152,0.0105316133
24,0.0141264275,0.010566365
25,0.0146861825,0.010938936
26,0.0152164781,0.0112773988
27,0.0157909628,0.01176495
28,0.0165716808,0.0127599642
29,0.0174702452,0.0140067123
30,0.0181478303,0.0142349355
31,0.0187959679,0.0148553371
32,0.0198123678,0.0158225578
33,0.0204899648,0.0164141554
34,0.0211822905,0.0169255087
35,0.0220219284,0.017833768
36,0.0227584508,0.0184347868
37,0.023524438,0.0194934971
38,0.024408264,0.0203358585
39,0.0252773679,0.0212814483
40,0.0261611949,0.0222333867
41,0.0273690951,0.0234520362
42,0.0291367656,0.0257458193
43,0.0304330614,0.0276340586
44,0.03186193,0.029673961
45,0.0336590685,0.0323783126
46,0.0354414817,0.0352658087
47,0.0362074537,0.0354958575
48,0.0372091174,0.0359908683
49,0.0380929379,0.0363971038
50,0.0389914936,0.0371599814
51,0.040140475,0.0382705971
52,0.0414073017,0.039801496
53,0.0420848965,0.0401575465
54,0.0427330331,0.0405697631
55,0.0435726634,0.0409939702
56,0.0448542132,0.0422636044
57,0.0459295244,0.0427945642
58,0.046901746,0.0441464638
59,0.047888694,0.0454186634
60,0.0495385203,0.0476831401
61,0.0504812705,0.0485713067
62,0.0514240229,0.0493495965
63,0.052322583,0.050040477
64,0.0530590988,0.050482031
65,0.0539723864,0.051167834
66,0.0552539525,0.0529229793
67,0.0574930073,0.0562970463
68,0.0599677591,0.0602155167
69,0.0607337344,0.0606434111
70,0.0615880977,0.0610665079
71,0.0624129973,0.0616514671
72,0.0634146805,0.0629963568
73,0.0652707454,0.06589927
74,0.0661103714,0.0662572069
75,0.0668763554,0.0668361709
76,0.0674802984,0.0670552264
77,0.0678927455,0.0670368357
78,0.0684672313,0.0673459651
79,0.0689533291,0.0674370002
80,0.069454162,0.067708744
81,0.0703232583,0.0683501623
82,0.0708977419,0.0685076565
83,0.0713985727,0.0687399721
84,0.0721498193,0.069103587
85,0.0730631145,0.0701901409
86,0.0738880195,0.0709978993
87,0.0746687353,0.0714287507
88,0.075640945,0.0724533008
89,0.0773938781,0.0743834502
90,0.0784397482,0.0757394233
91,0.079176276,0.0766285564
92,0.0805167588,0.0782424008
93,0.0820487485,0.0805009397
94,0.0828589281,0.0814575673
95,0.0835070668,0.081912115
96,0.0841257439,0.0822368781
97,0.0844350786,0.0821311796
98,0.0850095655,0.0821948252
99,0.0855398622,0.0825638914
100,0.0860259708,0.0830293413
