,mean,sd
1,0.01050204009587614,0.0017285777097167413
2,0.020152602990979783,0.002325715951692753
3,0.030706688127838815,0.0036004736710849214
4,0.03922579928358184,0.005105386594446166
5,0.04830854075244118,0.007667899680742251
6,0.05681331758367397,0.006589038487729716
7,0.0657815703583561,0.006384279802921452
8,0.0743842130074445,0.007257742145858676
9,0.07993100707408149,0.007912009616375991
10,0.0897223815829303,0.005255433709963345
11,0.09635931969964763,0.005701844563196124
12,0.10497782350917781,0.004271197992761426
13,0.11375841801180361,0.005638008176814151
14,0.12068545221985658,0.0073967529262318425
15,0.128134791856223,0.007818821207870348
16,0.13439865019431932,0.006306162870134671
17,0.1409246194199515,0.005684944855385008
18,0.14836865211158137,0.005605684703642221
19,0.15474943156980508,0.005264645899691128
20,0.1607062097094204,0.0047950349687001705
21,0.16573070424826358,0.005222771553453661
22,0.17218858408402687,0.004866633004094939
23,0.1767441905697154,0.00519689469397781
24,0.18191684202316175,0.005686941263916737
25,0.18698143932518685,0.005821114321689469
26,0.1911192156818204,0.006066677103670816
27,0.1967838574588098,0.006719366078833859
28,0.20078956605685447,0.006697567907110842
29,0.20546797959420152,0.007573168576914275
30,0.20998285608503858,0.00703887011911653
31,0.21580415464269542,0.007285753902593639
32,0.2214527652006578,0.00721999327277297
33,0.22719267835337234,0.006935514941660844
34,0.2320308258454315,0.008421300921240684
35,0.23687129993040848,0.008764189790687285
36,0.24139693707233728,0.00929752595851171
37,0.2459935459487471,0.0086014336678727
38,0.2497891471599946,0.007570416692112484
39,0.254377598028802,0.008497058059647932
40,0.2587312528733087,0.008059884897723834
41,0.2624831737331112,0.00782423562732792
42,0.26671084095167097,0.007307916299413689
43,0.27234338606791164,0.008139877797115884
44,0.2768876261901936,0.00801928767777801
45,0.28098828028580275,0.007673478692871706
46,0.28515587308036894,0.006884466373458579
47,0.28919901429235095,0.006696064058404193
48,0.29395715629015334,0.006962290332989873
49,0.29824367299940163,0.0065494589952711365
50,0.3011370551788106,0.006497839996844413
51,0.3046829433927375,0.006083109330411371
52,0.30850291040971883,0.007148461614110203
53,0.31298644301085626,0.007698909863687682
54,0.31651555010216004,0.00806251520615878
55,0.3193651581479844,0.008208005267707843
56,0.3225224468605569,0.008487630365554987
57,0.326555789570664,0.009581847083650091
58,0.33048825831059514,0.010300725761417419
59,0.33308798217048474,0.010300992005679325
60,0.3358664400723595,0.010308037429455328
61,0.33928063710800577,0.010117735994741976
62,0.34370288386136855,0.011366720536057938
63,0.346477636625415,0.011216763148494185
64,0.35030266049641906,0.010352531261025205
65,0.35381269072049093,0.010834228068809543
66,0.3570277260492759,0.012112195212008584
67,0.3599314376220384,0.012243960525712212
68,0.36352682053272173,0.012006715343533052
69,0.36741514956816557,0.011891350275488936
70,0.3705114414059299,0.011172761205715018
71,0.37394656695840656,0.011016249356203829
72,0.37844199716902066,0.011316726942421387
73,0.380724466976623,0.011251033489487163
74,0.38374485974974826,0.010397999867188078
75,0.38652868094387616,0.009845321120789003
76,0.3901869619902173,0.011557935881702758
77,0.3937288985551024,0.011306192707287584
78,0.3968542501033566,0.010691398863305493
79,0.4003853334347305,0.011074527465478086
80,0.4031301254289543,0.011616994885400639
81,0.40539688326517104,0.012946334355305582
82,0.408692213359768,0.014082773921347302
83,0.411686483566717,0.013630430165759534
84,0.41458665069372724,0.012985371847354573
85,0.4175397920372875,0.012403553395612915
86,0.4199922670622248,0.011880633514169766
87,0.42281148364568716,0.011279590216381854
88,0.42529534856743983,0.010831917320306979
89,0.4274651809833102,0.01075695801616302
90,0.42967674536642625,0.009825205801941421
91,0.4329963391044716,0.01018450948523185
92,0.43495746986074274,0.009998965579593105
93,0.43784605723073095,0.010138546140712745
94,0.44036795489275804,0.010822989707881514
95,0.44194272693127423,0.010465731437280242
96,0.4438982797926251,0.009836926813334418
97,0.44655501806246345,0.01001785001092434
98,0.45033345766868804,0.009271023400370764
99,0.4527281219766717,0.008871128161521054
100,0.4556878292150894,0.008648408919575029
101,0.45873758030010514,0.009065267359139139
102,0.4611641794465483,0.008908047290961413
103,0.4639759024433062,0.009489950641849593
104,0.4668447188218646,0.009304211784172655
105,0.4686785119992679,0.009425301757590281
106,0.47172063140004905,0.008458843973529322
107,0.47387133361663186,0.008743706401522607
108,0.4763575136269135,0.008820837313271235
109,0.47910574231193814,0.00927837513556246
110,0.48138178948041616,0.008848768619992594
111,0.4838424848860739,0.009426879647129576
112,0.48574980250450184,0.008749295401482143
113,0.48813237703109785,0.008260139075783034
114,0.4903833826642142,0.0071003099257212045
115,0.49242083644348006,0.007032965769643487
116,0.4941840684696192,0.007661444189016905
117,0.49692493680793354,0.00821152078742427
118,0.49875269246469534,0.007883660653937176
119,0.5006511833252558,0.007062262776589239
120,0.5033338622042637,0.007501824447239993
121,0.5055672651026765,0.007973029019753618
122,0.5076527742506147,0.007809913256969485
123,0.5091057071009012,0.008366411650476087
124,0.5104165776467191,0.008559797034306512
125,0.5133707050149156,0.009635976443136957
126,0.5157607946072601,0.009834536499041481
127,0.5176470584076138,0.009834560983580851
128,0.5202401754422927,0.009793888718885722
129,0.522032965817459,0.010711931758097603
130,0.5241460358658712,0.01059775771993183
131,0.5262832619580561,0.010400708607309905
132,0.5281920659290327,0.009652420381321806
133,0.5303383608515041,0.009411614493344175
134,0.5325313225992055,0.009022307257342023
135,0.5351015945773896,0.009890016223864572
136,0.5370614550997449,0.009774844085190483
137,0.5391352736608679,0.010292583224055752
138,0.5403253155265215,0.010359731169647945
139,0.5430048439595425,0.009758744815575843
140,0.5449330003866089,0.009440787437570701
141,0.5464826020447401,0.009481610566469121
142,0.5479443104080755,0.009457458768974372
143,0.5499876332953989,0.008919083034822578
144,0.5515435796469095,0.00908725879210359
145,0.5529267011636442,0.009367897478803837
146,0.5553230228118178,0.009122018864038836
147,0.5572557477156203,0.009143070269781338
148,0.5600268461754108,0.009503949199947195
149,0.5619386709196078,0.010033141406768035
150,0.5643924340732267,0.010627304208196483
151,0.5659118723392653,0.010804951821462096
152,0.5673865210453441,0.009865195836632128
153,0.5683600673468818,0.009981255754957011
154,0.570018306810343,0.010059004625317204
155,0.5715870671406496,0.010240261705320606
156,0.5737664597711284,0.010857030931149628
157,0.5754024857201234,0.01026553462758176
158,0.5776633671221502,0.009280317888967538
159,0.5792340514451909,0.009136489630927967
160,0.5807711236447596,0.008717622871519816
161,0.5818091012835918,0.00827530263786609
162,0.5839202757715533,0.008594214886379254
163,0.5849861321258663,0.008739436367987553
164,0.5863836214090322,0.008976135085534994
165,0.5877644157589375,0.008734943361992603
166,0.5892246019282432,0.008389482067193447
167,0.5901253668450752,0.007904705284652083
168,0.5913921112973333,0.007784205677488154
169,0.5932011248194587,0.00794372818111516
170,0.5947013523045956,0.00782924392840102
171,0.5961029842259361,0.008019158832107305
172,0.5978580133495965,0.007414476068812083
173,0.5996870094236859,0.0068863212113589
174,0.60120634414244,0.007119865770005056
175,0.602596199414001,0.007196901595176929
176,0.6036954529510906,0.006874115137805905
177,0.6053437723287521,0.0065054346901149895
178,0.6066360501328785,0.006228538917028514
179,0.6084423349029955,0.006324516479864103
180,0.6101740958077635,0.006804424132740965
181,0.6117247085416458,0.007021496337594
182,0.6130524964561467,0.0073221377112187794
183,0.6149369059883814,0.007091037194076093
184,0.6161938017803454,0.006970991098836341
185,0.6178131758324209,0.007554718173439824
186,0.618994385286613,0.007614004772391755
187,0.6203195481319652,0.0074891616581960535
188,0.6214479914710171,0.007374892860362218
189,0.6229148588222921,0.00794993331358894
190,0.6242996284303732,0.00767214176237405
191,0.6260510779763718,0.007835111435363598
192,0.6277132736819933,0.007352784269177197
193,0.6292774811936951,0.007930096702452146
194,0.6302760083025476,0.0074969343278848246
195,0.631310018206659,0.0073930840593785015
196,0.6321254261482749,0.007383917033139101
197,0.6327532668787959,0.00726245083494122
198,0.6336521493026395,0.007090282860351013
199,0.6353644119430119,0.007692484848895956
200,0.6369153465656188,0.0077611591884742615
